simulation/cordic/cordic.vcd
$date
     Nov 27, 2009       12:43:33
$end

$version
              SystemC 2.2.0 --- Jul 24 2009 07:22:09
$end

$timescale
     1 ns
$end

$scope module SystemC $end
$var wire   18  aaa  theta [17:0]  $end
$var wire   16  aab  zout11 [15:0]  $end
$var wire   16  aac  zin10 [15:0]  $end
$var wire   18  aad  yout11 [17:0]  $end
$var wire   18  aae  yin10 [17:0]  $end
$var wire   18  aaf  xout11 [17:0]  $end
$var wire   18  aag  xin10 [17:0]  $end
$var wire   16  aah  zout10 [15:0]  $end
$var wire   16  aai  zin9 [15:0]  $end
$var wire   18  aaj  yout10 [17:0]  $end
$var wire   18  aak  yin9 [17:0]  $end
$var wire   18  aal  xout10 [17:0]  $end
$var wire   18  aam  xin9 [17:0]  $end
$var wire   16  aan  zout9 [15:0]  $end
$var wire   16  aao  zin8 [15:0]  $end
$var wire   18  aap  yout9 [17:0]  $end
$var wire   18  aaq  yin8 [17:0]  $end
$var wire   18  aar  xout9 [17:0]  $end
$var wire   18  aas  xin8 [17:0]  $end
$var wire   16  aat  zout8 [15:0]  $end
$var wire   16  aau  zin7 [15:0]  $end
$var wire   18  aav  yout8 [17:0]  $end
$var wire   18  aaw  yin7 [17:0]  $end
$var wire   18  aax  xout8 [17:0]  $end
$var wire   18  aay  xin7 [17:0]  $end
$var wire   16  aaz  zout7 [15:0]  $end
$var wire   16  aba  zin6 [15:0]  $end
$var wire   18  abb  yout7 [17:0]  $end
$var wire   18  abc  yin6 [17:0]  $end
$var wire   18  abd  xout7 [17:0]  $end
$var wire   18  abe  xin6 [17:0]  $end
$var wire   16  abf  zout6 [15:0]  $end
$var wire   16  abg  zin5 [15:0]  $end
$var wire   18  abh  yout6 [17:0]  $end
$var wire   18  abi  yin5 [17:0]  $end
$var wire   18  abj  xout6 [17:0]  $end
$var wire   18  abk  xin5 [17:0]  $end
$var wire   16  abl  zout5 [15:0]  $end
$var wire   16  abm  zin4 [15:0]  $end
$var wire   18  abn  yout5 [17:0]  $end
$var wire   18  abo  yin4 [17:0]  $end
$var wire   18  abp  xout5 [17:0]  $end
$var wire   18  abq  xin4 [17:0]  $end
$var wire   16  abr  zout4 [15:0]  $end
$var wire   16  abs  zin3 [15:0]  $end
$var wire   18  abt  yout4 [17:0]  $end
$var wire   18  abu  yin3 [17:0]  $end
$var wire   18  abv  xout4 [17:0]  $end
$var wire   18  abw  xin3 [17:0]  $end
$var wire   16  abx  zout3 [15:0]  $end
$var wire   16  aby  zin2 [15:0]  $end
$var wire   18  abz  yout3 [17:0]  $end
$var wire   18  aca  yin2 [17:0]  $end
$var wire   18  acb  xout3 [17:0]  $end
$var wire   18  acc  xin2 [17:0]  $end
$var wire   16  acd  zout2 [15:0]  $end
$var wire   16  ace  zin1 [15:0]  $end
$var wire   18  acf  yout2 [17:0]  $end
$var wire   18  acg  yin1 [17:0]  $end
$var wire   18  ach  xout2 [17:0]  $end
$var wire   18  aci  xin1 [17:0]  $end
$var wire   16  acj  zout1 [15:0]  $end
$var wire   16  ack  zin0 [15:0]  $end
$var wire   18  acl  yout1 [17:0]  $end
$var wire   18  acm  yin0 [17:0]  $end
$var wire   18  acn  xout1 [17:0]  $end
$var wire   18  aco  xin0 [17:0]  $end
$var wire   16  acp  zout0 [15:0]  $end
$var wire   18  acq  yout0 [17:0]  $end
$var wire   18  acr  xout0 [17:0]  $end
$upscope $end
$enddefinitions  $end

$comment
All initial values are dumped below at time 0 sec = 0 timescale units.
$end

$dumpvars
b100111011100000 aaa
b1111111111111011 aab
b1111111111110110 aac
b0 aad
b0 aae
b0 aaf
b0 aag
b1111111111110110 aah
b1111111111101100 aai
b0 aaj
b0 aak
b0 aal
b0 aam
b1111111111101100 aan
b1111111111011000 aao
b0 aap
b0 aaq
b0 aar
b0 aas
b1111111111011000 aat
b1111111110101111 aau
b0 aav
b0 aaw
b0 aax
b0 aay
b1111111110101111 aaz
b1111111101011110 aba
b0 abb
b0 abc
b0 abd
b0 abe
b1111111101011110 abf
b1111111010111011 abg
b0 abh
b0 abi
b0 abj
b0 abk
b1111111010111011 abl
b1111110101110101 abm
b0 abn
b0 abo
b0 abp
b0 abq
b1111110101110101 abr
b1111101011101111 abs
b0 abt
b0 abu
b0 abv
b0 abw
b1111101011101111 abx
b1111011000000101 aby
b0 abz
b0 aca
b0 acb
b0 acc
b1111011000000101 acd
b1110110100011100 ace
b0 acf
b0 acg
b0 ach
b0 aci
b1110110100011100 acj
b1000100100000 ack
b0 acl
b10000000000000000 acm
b0 acn
b10000000000000000 aco
b1000100100000 acp
b10000000000000000 acq
b10000000000000000 acr
$end

#0
b1111111111010111 aao
b1111111111010111 aat
b1111111101011101 aba
b1111111101011101 abf
b1111111010111010 abg
b1111111010111010 abl
b1111110101111010 abm
b1111110101111010 abr
b1111101100010110 abs
b1111101100010110 abx
b1111011100010111 aby
b1111011100010111 acd
b1111111000111100 ace
b11000000000000000 acg
b1000000000000000 aci
b1111111000111100 acj
b11000000000000000 acl
b1000000000000000 acn

#2
b1111111111101011 aai
b1111111111101011 aan
b1111111110101110 aau
b1111111110101110 aaz
b1111111101011100 aba
b1111111101011100 abf
b1111111010111111 abg
b1111111010111111 abl
b1111110110100001 abm
b1111110110100001 abr
b1111110000101000 abs
b1111110000101000 abx
b100000110111 aby
b10110000000000000 aca
b1110000000000000 acc
b100000110111 acd
b10110000000000000 acf
b1110000000000000 ach

#4
b1111111111110101 aac
b1111111111110101 aah
b1111111111010110 aao
b1111111111010110 aat
b1111111110101101 aau
b1111111110101101 aaz
b1111111101100001 aba
b1111111101100001 abf
b1111111011100110 abg
b1111111011100110 abl
b1111111010110011 abm
b1111111010110011 abr
b1100100110 abs
b10111110000000000 abu
b1011010000000000 abw
b1100100110 abx
b10111110000000000 abz
b1011010000000000 acb

#6
b1111111111111010 aab
b1111111111101010 aai
b1111111111101010 aan
b1111111111010101 aao
b1111111111010101 aat
b1111111110110010 aau
b1111111110110010 aaz
b1111111110001000 aba
b1111111110001000 abf
b1111111111111000 abg
b1111111111111000 abl
b10011011 abm
b11000011101000000 abo
b1001110001000000 abq
b10011011 abr
b11000011101000000 abt
b1001110001000000 abv

#8
b1111111111110100 aac
b1111111111110100 aah
b1111111111101001 aai
b1111111111101001 aan
b1111111111011010 aao
b1111111111011010 aat
b1111111111011001 aau
b1111111111011001 aaz
b10011010 aba
b10011010 abf
b1111111101010110 abg
b11000110000100010 abi
b1001000000000110 abk
b1111111101010110 abl
b11000110000100010 abn
b1001000000000110 abp

#10
b1111111111111001 aab
b1111111111110011 aac
b1111111111110011 aah
b1111111111101110 aai
b1111111111101110 aan
b1 aao
b1 aat
b1001001 aau
b1001001 aaz
b1111111111111000 aba
b11000100111100001 abc
b1001011000110110 abe
b1111111111111000 abf
b11000100111100001 abh
b1001011000110110 abj

#12
b1111111111111000 aab
b1111111111111000 aac
b1111111111111000 aah
b1111111111101101 aai
b1111111111101101 aan
b100001 aao
b100001 aat
b11000100010110100 aaw
b1001100101001001 aay
b11000100010110100 abb
b1001100101001001 abd

#14
b1111111111111101 aab
b1111111111110111 aac
b1111111111110111 aah
b1101 aai
b1101 aan
b11000100101001101 aaq
b1001011111000000 aas
b11000100101001101 aav
b1001011111000000 aax

#16
b1111111111111100 aab
b11 aac
b11 aah
b11000100110011000 aak
b1001011011111011 aam
b11000100110011000 aap
b1001011011111011 aar

#18
b1111111111111110 aab
b11000100110111101 aae
b1001011010011000 aag
b11000100110111101 aaj
b1001011010011000 aal

#20
b11000100111001111 aad
b1001011001100110 aaf

